-- Merging decision tree log ---
manifest
ADDED from D:\Android\Resources\GHBank\GHBank\GHBankBook\AndroidManifest.xml:2:1-253:12
	package
		ADDED from D:\Android\Resources\GHBank\GHBank\GHBankBook\AndroidManifest.xml:3:5-35
		INJECTED from D:\Android\Resources\GHBank\GHBank\GHBankBook\AndroidManifest.xml
		INJECTED from D:\Android\Resources\GHBank\GHBank\GHBankBook\AndroidManifest.xml
	android:versionName
		INJECTED from D:\Android\Resources\GHBank\GHBank\GHBankBook\AndroidManifest.xml
		INJECTED from D:\Android\Resources\GHBank\GHBank\GHBankBook\AndroidManifest.xml
	xmlns:android
		ADDED from D:\Android\Resources\GHBank\GHBank\GHBankBook\AndroidManifest.xml:2:11-69
	android:versionCode
		INJECTED from D:\Android\Resources\GHBank\GHBank\GHBankBook\AndroidManifest.xml
		INJECTED from D:\Android\Resources\GHBank\GHBank\GHBankBook\AndroidManifest.xml
supports-screens
ADDED from D:\Android\Resources\GHBank\GHBank\GHBankBook\AndroidManifest.xml:5:5-9:40
	android:largeScreens
		ADDED from D:\Android\Resources\GHBank\GHBank\GHBankBook\AndroidManifest.xml:7:9-36
	android:smallScreens
		ADDED from D:\Android\Resources\GHBank\GHBank\GHBankBook\AndroidManifest.xml:9:9-37
	android:normalScreens
		ADDED from D:\Android\Resources\GHBank\GHBank\GHBankBook\AndroidManifest.xml:8:9-37
	android:anyDensity
		ADDED from D:\Android\Resources\GHBank\GHBank\GHBankBook\AndroidManifest.xml:6:9-34
uses-permission#android.permission.INTERNET
ADDED from D:\Android\Resources\GHBank\GHBank\GHBankBook\AndroidManifest.xml:11:5-67
MERGED from [GHBank:aripLibrary:unspecified] D:\Android\Resources\GHBank\GHBank\aripLibrary\build\intermediates\bundles\default\AndroidManifest.xml:11:5-67
MERGED from [com.google.firebase:firebase-analytics:10.2.0] C:\Users\androiddev\.android\build-cache\021c7394ad6201342f2f81c2a83e8e291faae2f3\output\AndroidManifest.xml:20:5-66
MERGED from [com.google.firebase:firebase-analytics-impl:10.2.0] C:\Users\androiddev\.android\build-cache\b7e9b613cf566da0bbd7bb0ba71ef9a96c83ceda\output\AndroidManifest.xml:20:5-66
MERGED from [com.google.firebase:firebase-iid:10.2.0] C:\Users\androiddev\.android\build-cache\2d1600166a7a2b73931e578b979e61d09e97a576\output\AndroidManifest.xml:20:5-66
	android:name
		ADDED from D:\Android\Resources\GHBank\GHBank\GHBankBook\AndroidManifest.xml:11:22-64
uses-permission#android.permission.ACCESS_NETWORK_STATE
ADDED from D:\Android\Resources\GHBank\GHBank\GHBankBook\AndroidManifest.xml:12:5-79
MERGED from [com.google.firebase:firebase-analytics:10.2.0] C:\Users\androiddev\.android\build-cache\021c7394ad6201342f2f81c2a83e8e291faae2f3\output\AndroidManifest.xml:21:5-78
MERGED from [com.google.firebase:firebase-analytics-impl:10.2.0] C:\Users\androiddev\.android\build-cache\b7e9b613cf566da0bbd7bb0ba71ef9a96c83ceda\output\AndroidManifest.xml:21:5-78
MERGED from [com.google.firebase:firebase-iid:10.2.0] C:\Users\androiddev\.android\build-cache\2d1600166a7a2b73931e578b979e61d09e97a576\output\AndroidManifest.xml:19:5-78
	android:name
		ADDED from D:\Android\Resources\GHBank\GHBank\GHBankBook\AndroidManifest.xml:12:22-76
uses-permission#android.permission.ACCESS_WIFI_STATE
ADDED from D:\Android\Resources\GHBank\GHBank\GHBankBook\AndroidManifest.xml:13:5-76
	android:name
		ADDED from D:\Android\Resources\GHBank\GHBank\GHBankBook\AndroidManifest.xml:13:22-73
uses-permission#android.permission.WRITE_INTERNAL_STORAGE
ADDED from D:\Android\Resources\GHBank\GHBank\GHBankBook\AndroidManifest.xml:14:5-81
MERGED from [GHBank:aripLibrary:unspecified] D:\Android\Resources\GHBank\GHBank\aripLibrary\build\intermediates\bundles\default\AndroidManifest.xml:12:5-81
	android:name
		ADDED from D:\Android\Resources\GHBank\GHBank\GHBankBook\AndroidManifest.xml:14:22-78
uses-permission#android.permission.WRITE_EXTERNAL_STORAGE
ADDED from D:\Android\Resources\GHBank\GHBank\GHBankBook\AndroidManifest.xml:15:5-81
MERGED from [GHBank:aripLibrary:unspecified] D:\Android\Resources\GHBank\GHBank\aripLibrary\build\intermediates\bundles\default\AndroidManifest.xml:13:5-81
	android:name
		ADDED from D:\Android\Resources\GHBank\GHBank\GHBankBook\AndroidManifest.xml:15:22-78
uses-permission#android.permission.WRITE_SETTINGS
ADDED from D:\Android\Resources\GHBank\GHBank\GHBankBook\AndroidManifest.xml:16:5-73
MERGED from [GHBank:aripLibrary:unspecified] D:\Android\Resources\GHBank\GHBank\aripLibrary\build\intermediates\bundles\default\AndroidManifest.xml:14:5-73
	android:name
		ADDED from D:\Android\Resources\GHBank\GHBank\GHBankBook\AndroidManifest.xml:16:22-70
uses-permission#android.permission.READ_EXTERNAL_STORAGE
ADDED from D:\Android\Resources\GHBank\GHBank\GHBankBook\AndroidManifest.xml:17:5-80
	android:name
		ADDED from D:\Android\Resources\GHBank\GHBank\GHBankBook\AndroidManifest.xml:17:22-77
uses-permission#android.permission.ACCESS_FINE_LOCATION
ADDED from D:\Android\Resources\GHBank\GHBank\GHBankBook\AndroidManifest.xml:19:5-79
	android:name
		ADDED from D:\Android\Resources\GHBank\GHBank\GHBankBook\AndroidManifest.xml:19:22-76
application
ADDED from D:\Android\Resources\GHBank\GHBank\GHBankBook\AndroidManifest.xml:21:5-251:19
MERGED from [com.android.support:gridlayout-v7:25.3.1] C:\Users\androiddev\.android\build-cache\b4a05073777173e9a18013c8a127f1695b1e8df1\output\AndroidManifest.xml:26:5-20
MERGED from [com.android.support:cardview-v7:25.3.1] C:\Users\androiddev\.android\build-cache\f3bb76c92150dc5ec35204b49dab62dd1dece2ad\output\AndroidManifest.xml:26:5-20
MERGED from [GHBank:aripLibrary:unspecified] D:\Android\Resources\GHBank\GHBank\aripLibrary\build\intermediates\bundles\default\AndroidManifest.xml:16:5-139:19
MERGED from [com.android.support:appcompat-v7:25.3.1] C:\Users\androiddev\.android\build-cache\cd4b911de54d2db84c65d12450d4bf8b2818148f\output\AndroidManifest.xml:29:5-20
MERGED from [com.android.support:animated-vector-drawable:25.3.1] C:\Users\androiddev\.android\build-cache\d66806389b7a59ccf5f2f8d7c5348f88683ba482\output\AndroidManifest.xml:26:5-20
MERGED from [com.android.support:support-vector-drawable:25.3.1] C:\Users\androiddev\.android\build-cache\b72cc8f1f6c3d1e17112a959a654a8aa269704fa\output\AndroidManifest.xml:26:5-20
MERGED from [group.aim.framework:connection:0.1.1] C:\Users\androiddev\.android\build-cache\f5d2672d8209f746559aea5b8b25b64a3256a2bb\output\AndroidManifest.xml:11:5-15:19
MERGED from [group.aim.framework:base-model:0.1.2] C:\Users\androiddev\.android\build-cache\f830bb3e93fcc5e436f72074805e254ba86f6e9e\output\AndroidManifest.xml:11:5-15:19
MERGED from [group.aim.framework:annotation:0.1.1] C:\Users\androiddev\.android\build-cache\3f568de9a29623dc11c65d4684ecd741a72d1796\output\AndroidManifest.xml:11:5-15:19
MERGED from [group.aim.framework:enumeration:0.1.3] C:\Users\androiddev\.android\build-cache\58180249ba1c0dbd85f93a228d96d069d0aeb503\output\AndroidManifest.xml:11:5-15:19
MERGED from [group.aim.framework:base-datetime:0.1.1] C:\Users\androiddev\.android\build-cache\2acd5b01579ac67d22216bd2b6895c93732d4e34\output\AndroidManifest.xml:11:5-15:19
MERGED from [group.aim.framework:helper:0.1.1] C:\Users\androiddev\.android\build-cache\9098ef235aa1e02aefe8ef2f3b2d777c55a54cd1\output\AndroidManifest.xml:11:5-15:19
MERGED from [com.pnikosis:materialish-progress:1.7] C:\Users\androiddev\.android\build-cache\5ef1ea66bdcfbb54d0be68261b02e6105417b0e5\output\AndroidManifest.xml:11:5-20
MERGED from [com.google.firebase:firebase-messaging:10.2.0] C:\Users\androiddev\.android\build-cache\97eee71bac4bc745ec4e25974f9e8cf1be7c8e7d\output\AndroidManifest.xml:19:5-29:19
MERGED from [com.google.firebase:firebase-core:10.2.0] C:\Users\androiddev\.android\build-cache\052bb99e0bee2aa0bb74665e6fed4185c3f0efde\output\AndroidManifest.xml:5:5-20
MERGED from [com.google.firebase:firebase-analytics:10.2.0] C:\Users\androiddev\.android\build-cache\021c7394ad6201342f2f81c2a83e8e291faae2f3\output\AndroidManifest.xml:24:5-33:19
MERGED from [com.google.firebase:firebase-analytics-impl:10.2.0] C:\Users\androiddev\.android\build-cache\b7e9b613cf566da0bbd7bb0ba71ef9a96c83ceda\output\AndroidManifest.xml:24:5-28:19
MERGED from [com.google.firebase:firebase-iid:10.2.0] C:\Users\androiddev\.android\build-cache\2d1600166a7a2b73931e578b979e61d09e97a576\output\AndroidManifest.xml:28:5-50:19
MERGED from [com.google.firebase:firebase-common:10.2.0] C:\Users\androiddev\.android\build-cache\f3e3b903c83eb8670d199377c273f7bfd70d7356\output\AndroidManifest.xml:4:5-7:19
MERGED from [com.google.android.gms:play-services-tasks:10.2.0] C:\Users\androiddev\.android\build-cache\eba52df10c6dcb00f345c27b5b623a2a6cc669dd\output\AndroidManifest.xml:4:5-19
MERGED from [com.google.android.gms:play-services-basement:10.2.0] C:\Users\androiddev\.android\build-cache\3d0144912d502dfb531d06e874f87a83b257f107\output\AndroidManifest.xml:19:5-21:19
MERGED from [com.android.support:support-v4:25.3.1] C:\Users\androiddev\.android\build-cache\2b675fddd81507619411a666e4fbb3c2bf6cc28a\output\AndroidManifest.xml:29:5-20
MERGED from [com.android.support:support-fragment:25.3.1] C:\Users\androiddev\.android\build-cache\6424740a25a4dc4f81a0cb41b3cf5f8e2419ff6f\output\AndroidManifest.xml:29:5-20
MERGED from [com.android.support:support-media-compat:25.3.1] C:\Users\androiddev\.android\build-cache\723e09a7e34876c3d8d9ff0cbdf612f2041f1742\output\AndroidManifest.xml:29:5-20
MERGED from [com.android.support:support-core-ui:25.3.1] C:\Users\androiddev\.android\build-cache\ee2d2b1acfbb652946d56841f5bf76a477c55c22\output\AndroidManifest.xml:29:5-20
MERGED from [com.android.support:support-core-utils:25.3.1] C:\Users\androiddev\.android\build-cache\ae9feb2a704f59df905912df1cbd2b83c658cd4a\output\AndroidManifest.xml:29:5-20
MERGED from [com.android.support:support-compat:25.3.1] C:\Users\androiddev\.android\build-cache\9460e16c82428aae72b328277059ad9a1f2154ba\output\AndroidManifest.xml:29:5-20
	android:label
		ADDED from D:\Android\Resources\GHBank\GHBank\GHBankBook\AndroidManifest.xml:26:9-41
	android:supportsRtl
		ADDED from [group.aim.framework:connection:0.1.1] C:\Users\androiddev\.android\build-cache\f5d2672d8209f746559aea5b8b25b64a3256a2bb\output\AndroidManifest.xml:14:9-35
	android:hardwareAccelerated
		ADDED from D:\Android\Resources\GHBank\GHBank\GHBankBook\AndroidManifest.xml:24:9-43
	android:allowBackup
		ADDED from D:\Android\Resources\GHBank\GHBank\GHBankBook\AndroidManifest.xml:23:9-35
	android:icon
		ADDED from D:\Android\Resources\GHBank\GHBank\GHBankBook\AndroidManifest.xml:25:9-45
	android:largeHeap
		ADDED from D:\Android\Resources\GHBank\GHBank\GHBankBook\AndroidManifest.xml:27:9-33
	android:theme
		ADDED from D:\Android\Resources\GHBank\GHBank\GHBankBook\AndroidManifest.xml:28:9-40
	android:name
		ADDED from D:\Android\Resources\GHBank\GHBank\GHBankBook\AndroidManifest.xml:22:9-49
activity#com.ghbank.bookshelf.BkShelfSplashScreen
ADDED from D:\Android\Resources\GHBank\GHBank\GHBankBook\AndroidManifest.xml:29:9-39:20
	android:screenOrientation
		ADDED from D:\Android\Resources\GHBank\GHBank\GHBankBook\AndroidManifest.xml:33:13-49
	android:label
		ADDED from D:\Android\Resources\GHBank\GHBank\GHBankBook\AndroidManifest.xml:32:13-45
	android:configChanges
		ADDED from D:\Android\Resources\GHBank\GHBank\GHBankBook\AndroidManifest.xml:31:13-63
	android:name
		ADDED from D:\Android\Resources\GHBank\GHBank\GHBankBook\AndroidManifest.xml:30:13-48
intent-filter#android.intent.action.MAIN+android.intent.category.LAUNCHER
ADDED from D:\Android\Resources\GHBank\GHBank\GHBankBook\AndroidManifest.xml:34:13-38:29
action#android.intent.action.MAIN
ADDED from D:\Android\Resources\GHBank\GHBank\GHBankBook\AndroidManifest.xml:35:17-69
	android:name
		ADDED from D:\Android\Resources\GHBank\GHBank\GHBankBook\AndroidManifest.xml:35:25-66
category#android.intent.category.LAUNCHER
ADDED from D:\Android\Resources\GHBank\GHBank\GHBankBook\AndroidManifest.xml:37:17-77
	android:name
		ADDED from D:\Android\Resources\GHBank\GHBank\GHBankBook\AndroidManifest.xml:37:27-74
activity#com.ghbank.bookshelf.BkShelf
ADDED from D:\Android\Resources\GHBank\GHBank\GHBankBook\AndroidManifest.xml:40:9-44:20
	android:screenOrientation
		ADDED from D:\Android\Resources\GHBank\GHBank\GHBankBook\AndroidManifest.xml:43:13-49
	android:configChanges
		ADDED from D:\Android\Resources\GHBank\GHBank\GHBankBook\AndroidManifest.xml:42:13-51
	android:name
		ADDED from D:\Android\Resources\GHBank\GHBank\GHBankBook\AndroidManifest.xml:41:13-36
activity#com.ghbank.bookshelf.BkShelfCategory
ADDED from D:\Android\Resources\GHBank\GHBank\GHBankBook\AndroidManifest.xml:45:9-49:20
	android:screenOrientation
		ADDED from D:\Android\Resources\GHBank\GHBank\GHBankBook\AndroidManifest.xml:48:13-49
	android:configChanges
		ADDED from D:\Android\Resources\GHBank\GHBank\GHBankBook\AndroidManifest.xml:47:13-51
	android:name
		ADDED from D:\Android\Resources\GHBank\GHBank\GHBankBook\AndroidManifest.xml:46:13-44
activity#com.ghbank.bookshelf.BkShelfByCategory
ADDED from D:\Android\Resources\GHBank\GHBank\GHBankBook\AndroidManifest.xml:50:9-53:20
	android:screenOrientation
		ADDED from D:\Android\Resources\GHBank\GHBank\GHBankBook\AndroidManifest.xml:52:13-49
	android:name
		ADDED from D:\Android\Resources\GHBank\GHBank\GHBankBook\AndroidManifest.xml:51:13-46
activity#com.ghbank.bookshelf.BkShelfWebActivity
ADDED from D:\Android\Resources\GHBank\GHBank\GHBankBook\AndroidManifest.xml:54:9-57:20
	android:screenOrientation
		ADDED from D:\Android\Resources\GHBank\GHBank\GHBankBook\AndroidManifest.xml:56:13-49
	android:name
		ADDED from D:\Android\Resources\GHBank\GHBank\GHBankBook\AndroidManifest.xml:55:13-47
activity#com.ghbank.bookshelf.BkShelfLibrary
ADDED from D:\Android\Resources\GHBank\GHBank\GHBankBook\AndroidManifest.xml:59:9-62:20
	android:screenOrientation
		ADDED from D:\Android\Resources\GHBank\GHBank\GHBankBook\AndroidManifest.xml:61:13-49
	android:name
		ADDED from D:\Android\Resources\GHBank\GHBank\GHBankBook\AndroidManifest.xml:60:13-43
activity#com.ghbank.bookshelf.activity.SearchActivity
ADDED from D:\Android\Resources\GHBank\GHBank\GHBankBook\AndroidManifest.xml:64:9-66:69
	android:screenOrientation
		ADDED from D:\Android\Resources\GHBank\GHBank\GHBankBook\AndroidManifest.xml:65:13-49
	android:theme
		ADDED from D:\Android\Resources\GHBank\GHBank\GHBankBook\AndroidManifest.xml:66:13-67
	android:name
		ADDED from D:\Android\Resources\GHBank\GHBank\GHBankBook\AndroidManifest.xml:64:19-58
activity#com.ghbank.bookshelf.BkShelfConfigPath
ADDED from D:\Android\Resources\GHBank\GHBank\GHBankBook\AndroidManifest.xml:72:9-76:20
	android:screenOrientation
		ADDED from D:\Android\Resources\GHBank\GHBank\GHBankBook\AndroidManifest.xml:75:13-49
	android:theme
		ADDED from D:\Android\Resources\GHBank\GHBank\GHBankBook\AndroidManifest.xml:74:13-77
	android:name
		ADDED from D:\Android\Resources\GHBank\GHBank\GHBankBook\AndroidManifest.xml:73:13-46
activity#com.arip.it.library.LectureActivity
ADDED from D:\Android\Resources\GHBank\GHBank\GHBankBook\AndroidManifest.xml:79:9-82:55
MERGED from [GHBank:aripLibrary:unspecified] D:\Android\Resources\GHBank\GHBank\aripLibrary\build\intermediates\bundles\default\AndroidManifest.xml:21:9-24:55
	android:configChanges
		ADDED from D:\Android\Resources\GHBank\GHBank\GHBankBook\AndroidManifest.xml:81:13-63
	android:theme
		ADDED from D:\Android\Resources\GHBank\GHBank\GHBankBook\AndroidManifest.xml:82:13-52
	android:name
		ADDED from D:\Android\Resources\GHBank\GHBank\GHBankBook\AndroidManifest.xml:80:13-63
activity#com.arip.it.library.BookmarkActivity
ADDED from D:\Android\Resources\GHBank\GHBank\GHBankBook\AndroidManifest.xml:83:9-85:55
MERGED from [GHBank:aripLibrary:unspecified] D:\Android\Resources\GHBank\GHBank\aripLibrary\build\intermediates\bundles\default\AndroidManifest.xml:25:9-27:55
	android:theme
		ADDED from D:\Android\Resources\GHBank\GHBank\GHBankBook\AndroidManifest.xml:85:13-52
	android:name
		ADDED from D:\Android\Resources\GHBank\GHBank\GHBankBook\AndroidManifest.xml:84:13-64
activity#com.arip.it.library.OutlineActivity
ADDED from D:\Android\Resources\GHBank\GHBank\GHBankBook\AndroidManifest.xml:86:9-88:53
MERGED from [GHBank:aripLibrary:unspecified] D:\Android\Resources\GHBank\GHBank\aripLibrary\build\intermediates\bundles\default\AndroidManifest.xml:28:9-30:53
	android:label
		ADDED from D:\Android\Resources\GHBank\GHBank\GHBankBook\AndroidManifest.xml:88:13-50
	android:name
		ADDED from D:\Android\Resources\GHBank\GHBank\GHBankBook\AndroidManifest.xml:87:13-63
activity#com.arip.it.library.GalleryActivity
ADDED from D:\Android\Resources\GHBank\GHBank\GHBankBook\AndroidManifest.xml:89:9-91:55
MERGED from [GHBank:aripLibrary:unspecified] D:\Android\Resources\GHBank\GHBank\aripLibrary\build\intermediates\bundles\default\AndroidManifest.xml:31:9-33:55
	android:theme
		ADDED from D:\Android\Resources\GHBank\GHBank\GHBankBook\AndroidManifest.xml:91:13-52
	android:name
		ADDED from D:\Android\Resources\GHBank\GHBank\GHBankBook\AndroidManifest.xml:90:13-63
activity#com.arip.it.library.SlideShowActivity
ADDED from D:\Android\Resources\GHBank\GHBank\GHBankBook\AndroidManifest.xml:92:9-94:55
MERGED from [GHBank:aripLibrary:unspecified] D:\Android\Resources\GHBank\GHBank\aripLibrary\build\intermediates\bundles\default\AndroidManifest.xml:34:9-36:55
	android:theme
		ADDED from D:\Android\Resources\GHBank\GHBank\GHBankBook\AndroidManifest.xml:94:13-52
	android:name
		ADDED from D:\Android\Resources\GHBank\GHBank\GHBankBook\AndroidManifest.xml:93:13-65
activity#com.arip.it.library.WebActivity
ADDED from D:\Android\Resources\GHBank\GHBank\GHBankBook\AndroidManifest.xml:95:9-97:55
MERGED from [GHBank:aripLibrary:unspecified] D:\Android\Resources\GHBank\GHBank\aripLibrary\build\intermediates\bundles\default\AndroidManifest.xml:37:9-39:55
	android:theme
		ADDED from D:\Android\Resources\GHBank\GHBank\GHBankBook\AndroidManifest.xml:97:13-52
	android:name
		ADDED from D:\Android\Resources\GHBank\GHBank\GHBankBook\AndroidManifest.xml:96:13-59
activity#com.arip.it.library.ExamChoice
ADDED from D:\Android\Resources\GHBank\GHBank\GHBankBook\AndroidManifest.xml:98:9-101:52
MERGED from [GHBank:aripLibrary:unspecified] D:\Android\Resources\GHBank\GHBank\aripLibrary\build\intermediates\bundles\default\AndroidManifest.xml:40:9-43:55
	android:screenOrientation
		ADDED from D:\Android\Resources\GHBank\GHBank\GHBankBook\AndroidManifest.xml:101:13-49
	android:theme
		ADDED from D:\Android\Resources\GHBank\GHBank\GHBankBook\AndroidManifest.xml:100:13-52
	android:name
		ADDED from D:\Android\Resources\GHBank\GHBank\GHBankBook\AndroidManifest.xml:99:13-58
activity#com.arip.it.library.ExamFill
ADDED from D:\Android\Resources\GHBank\GHBank\GHBankBook\AndroidManifest.xml:102:9-105:52
MERGED from [GHBank:aripLibrary:unspecified] D:\Android\Resources\GHBank\GHBank\aripLibrary\build\intermediates\bundles\default\AndroidManifest.xml:48:9-51:55
	android:screenOrientation
		ADDED from D:\Android\Resources\GHBank\GHBank\GHBankBook\AndroidManifest.xml:105:13-49
	android:theme
		ADDED from D:\Android\Resources\GHBank\GHBank\GHBankBook\AndroidManifest.xml:104:13-52
	android:name
		ADDED from D:\Android\Resources\GHBank\GHBank\GHBankBook\AndroidManifest.xml:103:13-56
activity#com.arip.it.library.ExamSound
ADDED from D:\Android\Resources\GHBank\GHBank\GHBankBook\AndroidManifest.xml:106:9-109:52
MERGED from [GHBank:aripLibrary:unspecified] D:\Android\Resources\GHBank\GHBank\aripLibrary\build\intermediates\bundles\default\AndroidManifest.xml:52:9-55:55
	android:screenOrientation
		ADDED from D:\Android\Resources\GHBank\GHBank\GHBankBook\AndroidManifest.xml:109:13-49
	android:theme
		ADDED from D:\Android\Resources\GHBank\GHBank\GHBankBook\AndroidManifest.xml:108:13-52
	android:name
		ADDED from D:\Android\Resources\GHBank\GHBank\GHBankBook\AndroidManifest.xml:107:13-57
activity#com.arip.it.library.ExamSort
ADDED from D:\Android\Resources\GHBank\GHBank\GHBankBook\AndroidManifest.xml:110:9-113:52
MERGED from [GHBank:aripLibrary:unspecified] D:\Android\Resources\GHBank\GHBank\aripLibrary\build\intermediates\bundles\default\AndroidManifest.xml:56:9-59:55
	android:screenOrientation
		ADDED from D:\Android\Resources\GHBank\GHBank\GHBankBook\AndroidManifest.xml:113:13-49
	android:theme
		ADDED from D:\Android\Resources\GHBank\GHBank\GHBankBook\AndroidManifest.xml:112:13-52
	android:name
		ADDED from D:\Android\Resources\GHBank\GHBank\GHBankBook\AndroidManifest.xml:111:13-56
activity#com.arip.it.library.ExamMatch
ADDED from D:\Android\Resources\GHBank\GHBank\GHBankBook\AndroidManifest.xml:114:9-117:52
MERGED from [GHBank:aripLibrary:unspecified] D:\Android\Resources\GHBank\GHBank\aripLibrary\build\intermediates\bundles\default\AndroidManifest.xml:60:9-63:55
	android:screenOrientation
		ADDED from D:\Android\Resources\GHBank\GHBank\GHBankBook\AndroidManifest.xml:117:13-49
	android:theme
		ADDED from D:\Android\Resources\GHBank\GHBank\GHBankBook\AndroidManifest.xml:116:13-52
	android:name
		ADDED from D:\Android\Resources\GHBank\GHBank\GHBankBook\AndroidManifest.xml:115:13-57
activity#com.ghbank.bookshelf.BookshelfStartActivity
ADDED from D:\Android\Resources\GHBank\GHBank\GHBankBook\AndroidManifest.xml:118:9-121:52
	android:screenOrientation
		ADDED from D:\Android\Resources\GHBank\GHBank\GHBankBook\AndroidManifest.xml:121:13-49
	android:theme
		ADDED from D:\Android\Resources\GHBank\GHBank\GHBankBook\AndroidManifest.xml:120:13-52
	android:name
		ADDED from D:\Android\Resources\GHBank\GHBank\GHBankBook\AndroidManifest.xml:119:13-51
activity#com.ghbank.bookshelf.BkShelfPreview
ADDED from D:\Android\Resources\GHBank\GHBank\GHBankBook\AndroidManifest.xml:122:9-127:20
	android:screenOrientation
		ADDED from D:\Android\Resources\GHBank\GHBank\GHBankBook\AndroidManifest.xml:126:13-49
	android:configChanges
		ADDED from D:\Android\Resources\GHBank\GHBank\GHBankBook\AndroidManifest.xml:124:13-51
	android:theme
		ADDED from D:\Android\Resources\GHBank\GHBank\GHBankBook\AndroidManifest.xml:125:13-52
	android:name
		ADDED from D:\Android\Resources\GHBank\GHBank\GHBankBook\AndroidManifest.xml:123:13-43
activity#com.ghbank.bookshelf.BkShelfLogIn
ADDED from D:\Android\Resources\GHBank\GHBank\GHBankBook\AndroidManifest.xml:128:9-130:52
	android:screenOrientation
		ADDED from D:\Android\Resources\GHBank\GHBank\GHBankBook\AndroidManifest.xml:130:13-49
	android:name
		ADDED from D:\Android\Resources\GHBank\GHBank\GHBankBook\AndroidManifest.xml:129:13-41
activity#com.ghbank.bookshelf.BkShelfTutorial
ADDED from D:\Android\Resources\GHBank\GHBank\GHBankBook\AndroidManifest.xml:131:9-135:20
	android:screenOrientation
		ADDED from D:\Android\Resources\GHBank\GHBank\GHBankBook\AndroidManifest.xml:134:13-49
	android:theme
		ADDED from D:\Android\Resources\GHBank\GHBank\GHBankBook\AndroidManifest.xml:133:13-52
	android:name
		ADDED from D:\Android\Resources\GHBank\GHBank\GHBankBook\AndroidManifest.xml:132:13-44
activity#com.ghbank.bookshelf.change.loaded.LoadedBookMainFragment
ADDED from D:\Android\Resources\GHBank\GHBank\GHBankBook\AndroidManifest.xml:136:9-140:20
	android:screenOrientation
		ADDED from D:\Android\Resources\GHBank\GHBank\GHBankBook\AndroidManifest.xml:139:13-49
	android:theme
		ADDED from D:\Android\Resources\GHBank\GHBank\GHBankBook\AndroidManifest.xml:138:13-52
	android:name
		ADDED from D:\Android\Resources\GHBank\GHBank\GHBankBook\AndroidManifest.xml:137:13-65
activity#com.ghbank.bookshelf.change.category.BookShelfViewCategory
ADDED from D:\Android\Resources\GHBank\GHBank\GHBankBook\AndroidManifest.xml:141:9-145:20
	android:screenOrientation
		ADDED from D:\Android\Resources\GHBank\GHBank\GHBankBook\AndroidManifest.xml:144:13-49
	android:theme
		ADDED from D:\Android\Resources\GHBank\GHBank\GHBankBook\AndroidManifest.xml:143:13-52
	android:name
		ADDED from D:\Android\Resources\GHBank\GHBank\GHBankBook\AndroidManifest.xml:142:13-66
activity#com.ghbank.bookshelf.BkShelfRegister
ADDED from D:\Android\Resources\GHBank\GHBank\GHBankBook\AndroidManifest.xml:147:9-148:51
	android:screenOrientation
		ADDED from D:\Android\Resources\GHBank\GHBank\GHBankBook\AndroidManifest.xml:148:13-49
	android:name
		ADDED from D:\Android\Resources\GHBank\GHBank\GHBankBook\AndroidManifest.xml:147:19-50
activity#com.ghbank.bookshelf.BkShelfForgotPassword
ADDED from D:\Android\Resources\GHBank\GHBank\GHBankBook\AndroidManifest.xml:150:9-151:51
	android:screenOrientation
		ADDED from D:\Android\Resources\GHBank\GHBank\GHBankBook\AndroidManifest.xml:151:13-49
	android:name
		ADDED from D:\Android\Resources\GHBank\GHBank\GHBankBook\AndroidManifest.xml:150:19-56
activity#com.ghbank.bookshelf.BkShelfEditProfile
ADDED from D:\Android\Resources\GHBank\GHBank\GHBankBook\AndroidManifest.xml:153:9-154:51
	android:screenOrientation
		ADDED from D:\Android\Resources\GHBank\GHBank\GHBankBook\AndroidManifest.xml:154:13-49
	android:name
		ADDED from D:\Android\Resources\GHBank\GHBank\GHBankBook\AndroidManifest.xml:153:19-53
activity#com.ghbank.bookshelf.change.category.CategorySelectActivity
ADDED from D:\Android\Resources\GHBank\GHBank\GHBankBook\AndroidManifest.xml:156:9-159:52
	android:screenOrientation
		ADDED from D:\Android\Resources\GHBank\GHBank\GHBankBook\AndroidManifest.xml:159:13-49
	android:theme
		ADDED from D:\Android\Resources\GHBank\GHBank\GHBankBook\AndroidManifest.xml:158:13-83
	android:name
		ADDED from D:\Android\Resources\GHBank\GHBank\GHBankBook\AndroidManifest.xml:157:13-67
activity#com.arip.it.library.VideoActivity
ADDED from D:\Android\Resources\GHBank\GHBank\GHBankBook\AndroidManifest.xml:161:9-164:55
MERGED from [GHBank:aripLibrary:unspecified] D:\Android\Resources\GHBank\GHBank\aripLibrary\build\intermediates\bundles\default\AndroidManifest.xml:64:9-67:55
	android:configChanges
		ADDED from D:\Android\Resources\GHBank\GHBank\GHBankBook\AndroidManifest.xml:163:13-63
	android:theme
		ADDED from D:\Android\Resources\GHBank\GHBank\GHBankBook\AndroidManifest.xml:164:13-52
	android:name
		ADDED from D:\Android\Resources\GHBank\GHBank\GHBankBook\AndroidManifest.xml:162:13-61
activity#com.arip.it.library.MuPDFActivity
ADDED from D:\Android\Resources\GHBank\GHBank\GHBankBook\AndroidManifest.xml:165:9-223:20
MERGED from [GHBank:aripLibrary:unspecified] D:\Android\Resources\GHBank\GHBank\aripLibrary\build\intermediates\bundles\default\AndroidManifest.xml:68:9-126:20
	android:label
		ADDED from D:\Android\Resources\GHBank\GHBank\GHBankBook\AndroidManifest.xml:167:13-45
	android:theme
		ADDED from D:\Android\Resources\GHBank\GHBank\GHBankBook\AndroidManifest.xml:168:13-62
	android:name
		ADDED from D:\Android\Resources\GHBank\GHBank\GHBankBook\AndroidManifest.xml:166:13-61
intent-filter#android.intent.action.VIEW+android.intent.category.DEFAULT
ADDED from D:\Android\Resources\GHBank\GHBank\GHBankBook\AndroidManifest.xml:169:13-175:29
action#android.intent.action.VIEW
ADDED from D:\Android\Resources\GHBank\GHBank\GHBankBook\AndroidManifest.xml:170:17-69
	android:name
		ADDED from D:\Android\Resources\GHBank\GHBank\GHBankBook\AndroidManifest.xml:170:25-66
category#android.intent.category.DEFAULT
ADDED from D:\Android\Resources\GHBank\GHBank\GHBankBook\AndroidManifest.xml:172:17-76
	android:name
		ADDED from D:\Android\Resources\GHBank\GHBank\GHBankBook\AndroidManifest.xml:172:27-73
data
ADDED from D:\Android\Resources\GHBank\GHBank\GHBankBook\AndroidManifest.xml:174:17-75
	android:mimeType
		ADDED from D:\Android\Resources\GHBank\GHBank\GHBankBook\AndroidManifest.xml:174:23-72
intent-filter#android.intent.action.VIEW+android.intent.category.BROWSABLE+android.intent.category.DEFAULT
ADDED from D:\Android\Resources\GHBank\GHBank\GHBankBook\AndroidManifest.xml:190:13-200:29
category#android.intent.category.BROWSABLE
ADDED from D:\Android\Resources\GHBank\GHBank\GHBankBook\AndroidManifest.xml:194:17-78
	android:name
		ADDED from D:\Android\Resources\GHBank\GHBank\GHBankBook\AndroidManifest.xml:194:27-75
provider#com.ianhanniballake.localstorage.LocalStorageProvider
ADDED from D:\Android\Resources\GHBank\GHBank\GHBankBook\AndroidManifest.xml:225:9-235:20
MERGED from [GHBank:aripLibrary:unspecified] D:\Android\Resources\GHBank\GHBank\aripLibrary\build\intermediates\bundles\default\AndroidManifest.xml:128:9-138:20
	android:authorities
		ADDED from D:\Android\Resources\GHBank\GHBank\GHBankBook\AndroidManifest.xml:227:13-78
	android:enabled
		ADDED from D:\Android\Resources\GHBank\GHBank\GHBankBook\AndroidManifest.xml:228:13-49
	android:grantUriPermissions
		ADDED from D:\Android\Resources\GHBank\GHBank\GHBankBook\AndroidManifest.xml:230:13-47
	android:exported
		ADDED from D:\Android\Resources\GHBank\GHBank\GHBankBook\AndroidManifest.xml:229:13-36
	android:permission
		ADDED from D:\Android\Resources\GHBank\GHBank\GHBankBook\AndroidManifest.xml:231:13-69
	android:name
		ADDED from D:\Android\Resources\GHBank\GHBank\GHBankBook\AndroidManifest.xml:226:13-81
intent-filter#android.content.action.DOCUMENTS_PROVIDER
ADDED from D:\Android\Resources\GHBank\GHBank\GHBankBook\AndroidManifest.xml:232:13-234:29
action#android.content.action.DOCUMENTS_PROVIDER
ADDED from D:\Android\Resources\GHBank\GHBank\GHBankBook\AndroidManifest.xml:233:17-84
	android:name
		ADDED from D:\Android\Resources\GHBank\GHBank\GHBankBook\AndroidManifest.xml:233:25-81
service#com.ghbank.bookshelf.service.MyFirebaseMessagingService
ADDED from D:\Android\Resources\GHBank\GHBank\GHBankBook\AndroidManifest.xml:237:9-242:19
	android:name
		ADDED from D:\Android\Resources\GHBank\GHBank\GHBankBook\AndroidManifest.xml:238:13-63
intent-filter#com.google.firebase.MESSAGING_EVENT
ADDED from D:\Android\Resources\GHBank\GHBank\GHBankBook\AndroidManifest.xml:239:13-241:29
action#com.google.firebase.MESSAGING_EVENT
ADDED from D:\Android\Resources\GHBank\GHBank\GHBankBook\AndroidManifest.xml:240:17-77
	android:name
		ADDED from D:\Android\Resources\GHBank\GHBank\GHBankBook\AndroidManifest.xml:240:25-75
service#com.ghbank.bookshelf.service.MyFirebaseInstanceIdService
ADDED from D:\Android\Resources\GHBank\GHBank\GHBankBook\AndroidManifest.xml:243:9-248:19
	android:name
		ADDED from D:\Android\Resources\GHBank\GHBank\GHBankBook\AndroidManifest.xml:244:13-64
intent-filter#com.google.firebase.INSTANCE_ID_EVENT
ADDED from D:\Android\Resources\GHBank\GHBank\GHBankBook\AndroidManifest.xml:245:13-247:29
action#com.google.firebase.INSTANCE_ID_EVENT
ADDED from D:\Android\Resources\GHBank\GHBank\GHBankBook\AndroidManifest.xml:246:17-79
	android:name
		ADDED from D:\Android\Resources\GHBank\GHBank\GHBankBook\AndroidManifest.xml:246:25-77
uses-sdk
INJECTED from D:\Android\Resources\GHBank\GHBank\GHBankBook\AndroidManifest.xml reason: use-sdk injection requested
MERGED from [com.android.support:multidex:1.0.1] C:\Users\androiddev\.android\build-cache\9f85b533f2ec40e10ee7a4f8558b6e58f9d91ad4\output\AndroidManifest.xml:18:5-42
MERGED from [com.android.support:recyclerview-v7:25.3.1] C:\Users\androiddev\.android\build-cache\fc1c296f719041f50ecbcaaf830df6c6aace2a63\output\AndroidManifest.xml:20:5-43
MERGED from [com.android.support:gridlayout-v7:25.3.1] C:\Users\androiddev\.android\build-cache\b4a05073777173e9a18013c8a127f1695b1e8df1\output\AndroidManifest.xml:20:5-43
MERGED from [com.android.support:cardview-v7:25.3.1] C:\Users\androiddev\.android\build-cache\f3bb76c92150dc5ec35204b49dab62dd1dece2ad\output\AndroidManifest.xml:20:5-43
MERGED from [GHBank:aripLibrary:unspecified] D:\Android\Resources\GHBank\GHBank\aripLibrary\build\intermediates\bundles\default\AndroidManifest.xml:7:5-9:41
MERGED from [GHBank:FileChooser:unspecified] D:\Android\Resources\GHBank\GHBank\FileChooser\build\intermediates\bundles\default\AndroidManifest.xml:22:5-24:41
MERGED from [com.android.support:appcompat-v7:25.3.1] C:\Users\androiddev\.android\build-cache\cd4b911de54d2db84c65d12450d4bf8b2818148f\output\AndroidManifest.xml:21:5-23:78
MERGED from [com.android.support:animated-vector-drawable:25.3.1] C:\Users\androiddev\.android\build-cache\d66806389b7a59ccf5f2f8d7c5348f88683ba482\output\AndroidManifest.xml:20:5-44
MERGED from [com.android.support:support-vector-drawable:25.3.1] C:\Users\androiddev\.android\build-cache\b72cc8f1f6c3d1e17112a959a654a8aa269704fa\output\AndroidManifest.xml:20:5-43
MERGED from [group.aim.framework:connection:0.1.1] C:\Users\androiddev\.android\build-cache\f5d2672d8209f746559aea5b8b25b64a3256a2bb\output\AndroidManifest.xml:7:5-9:41
MERGED from [group.aim.framework:base-model:0.1.2] C:\Users\androiddev\.android\build-cache\f830bb3e93fcc5e436f72074805e254ba86f6e9e\output\AndroidManifest.xml:7:5-9:41
MERGED from [group.aim.framework:annotation:0.1.1] C:\Users\androiddev\.android\build-cache\3f568de9a29623dc11c65d4684ecd741a72d1796\output\AndroidManifest.xml:7:5-9:41
MERGED from [group.aim.framework:enumeration:0.1.3] C:\Users\androiddev\.android\build-cache\58180249ba1c0dbd85f93a228d96d069d0aeb503\output\AndroidManifest.xml:7:5-9:41
MERGED from [group.aim.framework:base-datetime:0.1.1] C:\Users\androiddev\.android\build-cache\2acd5b01579ac67d22216bd2b6895c93732d4e34\output\AndroidManifest.xml:7:5-9:41
MERGED from [group.aim.framework:helper:0.1.1] C:\Users\androiddev\.android\build-cache\9098ef235aa1e02aefe8ef2f3b2d777c55a54cd1\output\AndroidManifest.xml:7:5-9:41
MERGED from [com.pnikosis:materialish-progress:1.7] C:\Users\androiddev\.android\build-cache\5ef1ea66bdcfbb54d0be68261b02e6105417b0e5\output\AndroidManifest.xml:7:5-9:41
MERGED from [com.google.firebase:firebase-messaging:10.2.0] C:\Users\androiddev\.android\build-cache\97eee71bac4bc745ec4e25974f9e8cf1be7c8e7d\output\AndroidManifest.xml:17:5-43
MERGED from [com.google.firebase:firebase-core:10.2.0] C:\Users\androiddev\.android\build-cache\052bb99e0bee2aa0bb74665e6fed4185c3f0efde\output\AndroidManifest.xml:4:5-43
MERGED from [com.google.firebase:firebase-analytics:10.2.0] C:\Users\androiddev\.android\build-cache\021c7394ad6201342f2f81c2a83e8e291faae2f3\output\AndroidManifest.xml:17:5-43
MERGED from [com.google.firebase:firebase-analytics-impl:10.2.0] C:\Users\androiddev\.android\build-cache\b7e9b613cf566da0bbd7bb0ba71ef9a96c83ceda\output\AndroidManifest.xml:17:5-43
MERGED from [com.google.firebase:firebase-iid:10.2.0] C:\Users\androiddev\.android\build-cache\2d1600166a7a2b73931e578b979e61d09e97a576\output\AndroidManifest.xml:17:5-43
MERGED from [com.google.firebase:firebase-common:10.2.0] C:\Users\androiddev\.android\build-cache\f3e3b903c83eb8670d199377c273f7bfd70d7356\output\AndroidManifest.xml:3:5-43
MERGED from [com.google.android.gms:play-services-tasks:10.2.0] C:\Users\androiddev\.android\build-cache\eba52df10c6dcb00f345c27b5b623a2a6cc669dd\output\AndroidManifest.xml:3:5-43
MERGED from [com.google.android.gms:play-services-basement:10.2.0] C:\Users\androiddev\.android\build-cache\3d0144912d502dfb531d06e874f87a83b257f107\output\AndroidManifest.xml:17:5-43
MERGED from [com.android.support:support-v4:25.3.1] C:\Users\androiddev\.android\build-cache\2b675fddd81507619411a666e4fbb3c2bf6cc28a\output\AndroidManifest.xml:21:5-23:54
MERGED from [com.android.support:support-fragment:25.3.1] C:\Users\androiddev\.android\build-cache\6424740a25a4dc4f81a0cb41b3cf5f8e2419ff6f\output\AndroidManifest.xml:21:5-23:60
MERGED from [com.android.support:support-media-compat:25.3.1] C:\Users\androiddev\.android\build-cache\723e09a7e34876c3d8d9ff0cbdf612f2041f1742\output\AndroidManifest.xml:21:5-23:63
MERGED from [com.android.support:support-core-ui:25.3.1] C:\Users\androiddev\.android\build-cache\ee2d2b1acfbb652946d56841f5bf76a477c55c22\output\AndroidManifest.xml:21:5-23:58
MERGED from [com.android.support:support-core-utils:25.3.1] C:\Users\androiddev\.android\build-cache\ae9feb2a704f59df905912df1cbd2b83c658cd4a\output\AndroidManifest.xml:21:5-23:61
MERGED from [com.android.support:support-compat:25.3.1] C:\Users\androiddev\.android\build-cache\9460e16c82428aae72b328277059ad9a1f2154ba\output\AndroidManifest.xml:21:5-23:58
	tools:overrideLibrary
		ADDED from [com.android.support:appcompat-v7:25.3.1] C:\Users\androiddev\.android\build-cache\cd4b911de54d2db84c65d12450d4bf8b2818148f\output\AndroidManifest.xml:23:9-75
	android:targetSdkVersion
		INJECTED from D:\Android\Resources\GHBank\GHBank\GHBankBook\AndroidManifest.xml
		INJECTED from D:\Android\Resources\GHBank\GHBank\GHBankBook\AndroidManifest.xml
	android:minSdkVersion
		INJECTED from D:\Android\Resources\GHBank\GHBank\GHBankBook\AndroidManifest.xml
		INJECTED from D:\Android\Resources\GHBank\GHBank\GHBankBook\AndroidManifest.xml
meta-data#android.support.VERSION
ADDED from [com.android.support:recyclerview-v7:25.3.1] C:\Users\androiddev\.android\build-cache\fc1c296f719041f50ecbcaaf830df6c6aace2a63\output\AndroidManifest.xml:22:5-24:34
MERGED from [com.android.support:gridlayout-v7:25.3.1] C:\Users\androiddev\.android\build-cache\b4a05073777173e9a18013c8a127f1695b1e8df1\output\AndroidManifest.xml:22:5-24:34
MERGED from [com.android.support:cardview-v7:25.3.1] C:\Users\androiddev\.android\build-cache\f3bb76c92150dc5ec35204b49dab62dd1dece2ad\output\AndroidManifest.xml:22:5-24:34
MERGED from [com.android.support:appcompat-v7:25.3.1] C:\Users\androiddev\.android\build-cache\cd4b911de54d2db84c65d12450d4bf8b2818148f\output\AndroidManifest.xml:25:5-27:34
MERGED from [com.android.support:animated-vector-drawable:25.3.1] C:\Users\androiddev\.android\build-cache\d66806389b7a59ccf5f2f8d7c5348f88683ba482\output\AndroidManifest.xml:22:5-24:34
MERGED from [com.android.support:support-vector-drawable:25.3.1] C:\Users\androiddev\.android\build-cache\b72cc8f1f6c3d1e17112a959a654a8aa269704fa\output\AndroidManifest.xml:22:5-24:34
MERGED from [com.android.support:support-v4:25.3.1] C:\Users\androiddev\.android\build-cache\2b675fddd81507619411a666e4fbb3c2bf6cc28a\output\AndroidManifest.xml:25:5-27:34
MERGED from [com.android.support:support-fragment:25.3.1] C:\Users\androiddev\.android\build-cache\6424740a25a4dc4f81a0cb41b3cf5f8e2419ff6f\output\AndroidManifest.xml:25:5-27:34
MERGED from [com.android.support:support-media-compat:25.3.1] C:\Users\androiddev\.android\build-cache\723e09a7e34876c3d8d9ff0cbdf612f2041f1742\output\AndroidManifest.xml:25:5-27:34
MERGED from [com.android.support:support-core-ui:25.3.1] C:\Users\androiddev\.android\build-cache\ee2d2b1acfbb652946d56841f5bf76a477c55c22\output\AndroidManifest.xml:25:5-27:34
MERGED from [com.android.support:support-core-utils:25.3.1] C:\Users\androiddev\.android\build-cache\ae9feb2a704f59df905912df1cbd2b83c658cd4a\output\AndroidManifest.xml:25:5-27:34
MERGED from [com.android.support:support-compat:25.3.1] C:\Users\androiddev\.android\build-cache\9460e16c82428aae72b328277059ad9a1f2154ba\output\AndroidManifest.xml:25:5-27:34
	android:value
		ADDED from [com.android.support:recyclerview-v7:25.3.1] C:\Users\androiddev\.android\build-cache\fc1c296f719041f50ecbcaaf830df6c6aace2a63\output\AndroidManifest.xml:24:9-31
	android:name
		ADDED from [com.android.support:recyclerview-v7:25.3.1] C:\Users\androiddev\.android\build-cache\fc1c296f719041f50ecbcaaf830df6c6aace2a63\output\AndroidManifest.xml:23:9-47
activity#com.arip.it.library.ExamChoice2
ADDED from [GHBank:aripLibrary:unspecified] D:\Android\Resources\GHBank\GHBank\aripLibrary\build\intermediates\bundles\default\AndroidManifest.xml:44:9-47:55
	android:screenOrientation
		ADDED from [GHBank:aripLibrary:unspecified] D:\Android\Resources\GHBank\GHBank\aripLibrary\build\intermediates\bundles\default\AndroidManifest.xml:46:13-49
	android:theme
		ADDED from [GHBank:aripLibrary:unspecified] D:\Android\Resources\GHBank\GHBank\aripLibrary\build\intermediates\bundles\default\AndroidManifest.xml:47:13-52
	android:name
		ADDED from [GHBank:aripLibrary:unspecified] D:\Android\Resources\GHBank\GHBank\aripLibrary\build\intermediates\bundles\default\AndroidManifest.xml:45:13-59
service#com.google.firebase.messaging.FirebaseMessagingService
ADDED from [com.google.firebase:firebase-messaging:10.2.0] C:\Users\androiddev\.android\build-cache\97eee71bac4bc745ec4e25974f9e8cf1be7c8e7d\output\AndroidManifest.xml:23:9-27:19
	android:exported
		ADDED from [com.google.firebase:firebase-messaging:10.2.0] C:\Users\androiddev\.android\build-cache\97eee71bac4bc745ec4e25974f9e8cf1be7c8e7d\output\AndroidManifest.xml:23:88-111
	android:name
		ADDED from [com.google.firebase:firebase-messaging:10.2.0] C:\Users\androiddev\.android\build-cache\97eee71bac4bc745ec4e25974f9e8cf1be7c8e7d\output\AndroidManifest.xml:23:18-87
uses-permission#android.permission.WAKE_LOCK
ADDED from [com.google.firebase:firebase-analytics:10.2.0] C:\Users\androiddev\.android\build-cache\021c7394ad6201342f2f81c2a83e8e291faae2f3\output\AndroidManifest.xml:22:5-67
MERGED from [com.google.firebase:firebase-analytics-impl:10.2.0] C:\Users\androiddev\.android\build-cache\b7e9b613cf566da0bbd7bb0ba71ef9a96c83ceda\output\AndroidManifest.xml:22:5-67
MERGED from [com.google.firebase:firebase-iid:10.2.0] C:\Users\androiddev\.android\build-cache\2d1600166a7a2b73931e578b979e61d09e97a576\output\AndroidManifest.xml:21:5-67
	android:name
		ADDED from [com.google.firebase:firebase-analytics:10.2.0] C:\Users\androiddev\.android\build-cache\021c7394ad6201342f2f81c2a83e8e291faae2f3\output\AndroidManifest.xml:22:22-65
receiver#com.google.android.gms.measurement.AppMeasurementReceiver
ADDED from [com.google.firebase:firebase-analytics:10.2.0] C:\Users\androiddev\.android\build-cache\021c7394ad6201342f2f81c2a83e8e291faae2f3\output\AndroidManifest.xml:25:7-26:18
MERGED from [com.google.firebase:firebase-analytics-impl:10.2.0] C:\Users\androiddev\.android\build-cache\b7e9b613cf566da0bbd7bb0ba71ef9a96c83ceda\output\AndroidManifest.xml:25:7-26:18
	android:enabled
		ADDED from [com.google.firebase:firebase-analytics:10.2.0] C:\Users\androiddev\.android\build-cache\021c7394ad6201342f2f81c2a83e8e291faae2f3\output\AndroidManifest.xml:25:90-112
	android:exported
		ADDED from [com.google.firebase:firebase-analytics:10.2.0] C:\Users\androiddev\.android\build-cache\021c7394ad6201342f2f81c2a83e8e291faae2f3\output\AndroidManifest.xml:25:113-137
	android:name
		ADDED from [com.google.firebase:firebase-analytics:10.2.0] C:\Users\androiddev\.android\build-cache\021c7394ad6201342f2f81c2a83e8e291faae2f3\output\AndroidManifest.xml:25:17-89
receiver#com.google.android.gms.measurement.AppMeasurementInstallReferrerReceiver
ADDED from [com.google.firebase:firebase-analytics:10.2.0] C:\Users\androiddev\.android\build-cache\021c7394ad6201342f2f81c2a83e8e291faae2f3\output\AndroidManifest.xml:27:7-31:18
	android:enabled
		ADDED from [com.google.firebase:firebase-analytics:10.2.0] C:\Users\androiddev\.android\build-cache\021c7394ad6201342f2f81c2a83e8e291faae2f3\output\AndroidManifest.xml:27:162-184
	android:permission
		ADDED from [com.google.firebase:firebase-analytics:10.2.0] C:\Users\androiddev\.android\build-cache\021c7394ad6201342f2f81c2a83e8e291faae2f3\output\AndroidManifest.xml:27:105-161
	android:name
		ADDED from [com.google.firebase:firebase-analytics:10.2.0] C:\Users\androiddev\.android\build-cache\021c7394ad6201342f2f81c2a83e8e291faae2f3\output\AndroidManifest.xml:27:17-104
intent-filter#com.android.vending.INSTALL_REFERRER
ADDED from [com.google.firebase:firebase-analytics:10.2.0] C:\Users\androiddev\.android\build-cache\021c7394ad6201342f2f81c2a83e8e291faae2f3\output\AndroidManifest.xml:28:11-30:27
action#com.android.vending.INSTALL_REFERRER
ADDED from [com.google.firebase:firebase-analytics:10.2.0] C:\Users\androiddev\.android\build-cache\021c7394ad6201342f2f81c2a83e8e291faae2f3\output\AndroidManifest.xml:29:15-76
	android:name
		ADDED from [com.google.firebase:firebase-analytics:10.2.0] C:\Users\androiddev\.android\build-cache\021c7394ad6201342f2f81c2a83e8e291faae2f3\output\AndroidManifest.xml:29:23-74
service#com.google.android.gms.measurement.AppMeasurementService
ADDED from [com.google.firebase:firebase-analytics:10.2.0] C:\Users\androiddev\.android\build-cache\021c7394ad6201342f2f81c2a83e8e291faae2f3\output\AndroidManifest.xml:32:7-137
MERGED from [com.google.firebase:firebase-analytics-impl:10.2.0] C:\Users\androiddev\.android\build-cache\b7e9b613cf566da0bbd7bb0ba71ef9a96c83ceda\output\AndroidManifest.xml:27:7-137
	android:enabled
		ADDED from [com.google.firebase:firebase-analytics:10.2.0] C:\Users\androiddev\.android\build-cache\021c7394ad6201342f2f81c2a83e8e291faae2f3\output\AndroidManifest.xml:32:88-110
	android:exported
		ADDED from [com.google.firebase:firebase-analytics:10.2.0] C:\Users\androiddev\.android\build-cache\021c7394ad6201342f2f81c2a83e8e291faae2f3\output\AndroidManifest.xml:32:111-135
	android:name
		ADDED from [com.google.firebase:firebase-analytics:10.2.0] C:\Users\androiddev\.android\build-cache\021c7394ad6201342f2f81c2a83e8e291faae2f3\output\AndroidManifest.xml:32:16-87
uses-permission#com.google.android.c2dm.permission.RECEIVE
ADDED from [com.google.firebase:firebase-iid:10.2.0] C:\Users\androiddev\.android\build-cache\2d1600166a7a2b73931e578b979e61d09e97a576\output\AndroidManifest.xml:22:5-81
	android:name
		ADDED from [com.google.firebase:firebase-iid:10.2.0] C:\Users\androiddev\.android\build-cache\2d1600166a7a2b73931e578b979e61d09e97a576\output\AndroidManifest.xml:22:22-79
permission#${applicationId}.permission.C2D_MESSAGE
ADDED from [com.google.firebase:firebase-iid:10.2.0] C:\Users\androiddev\.android\build-cache\2d1600166a7a2b73931e578b979e61d09e97a576\output\AndroidManifest.xml:24:5-109
	android:protectionLevel
		ADDED from [com.google.firebase:firebase-iid:10.2.0] C:\Users\androiddev\.android\build-cache\2d1600166a7a2b73931e578b979e61d09e97a576\output\AndroidManifest.xml:24:72-107
	android:name
		ADDED from [com.google.firebase:firebase-iid:10.2.0] C:\Users\androiddev\.android\build-cache\2d1600166a7a2b73931e578b979e61d09e97a576\output\AndroidManifest.xml:24:17-71
uses-permission#${applicationId}.permission.C2D_MESSAGE
ADDED from [com.google.firebase:firebase-iid:10.2.0] C:\Users\androiddev\.android\build-cache\2d1600166a7a2b73931e578b979e61d09e97a576\output\AndroidManifest.xml:26:5-78
	android:name
		ADDED from [com.google.firebase:firebase-iid:10.2.0] C:\Users\androiddev\.android\build-cache\2d1600166a7a2b73931e578b979e61d09e97a576\output\AndroidManifest.xml:26:22-76
receiver#com.google.firebase.iid.FirebaseInstanceIdReceiver
ADDED from [com.google.firebase:firebase-iid:10.2.0] C:\Users\androiddev\.android\build-cache\2d1600166a7a2b73931e578b979e61d09e97a576\output\AndroidManifest.xml:30:9-36:20
	android:exported
		ADDED from [com.google.firebase:firebase-iid:10.2.0] C:\Users\androiddev\.android\build-cache\2d1600166a7a2b73931e578b979e61d09e97a576\output\AndroidManifest.xml:30:85-108
	android:permission
		ADDED from [com.google.firebase:firebase-iid:10.2.0] C:\Users\androiddev\.android\build-cache\2d1600166a7a2b73931e578b979e61d09e97a576\output\AndroidManifest.xml:30:109-169
	android:name
		ADDED from [com.google.firebase:firebase-iid:10.2.0] C:\Users\androiddev\.android\build-cache\2d1600166a7a2b73931e578b979e61d09e97a576\output\AndroidManifest.xml:30:19-84
intent-filter#${applicationId}+com.google.android.c2dm.intent.RECEIVE+com.google.android.c2dm.intent.REGISTRATION
ADDED from [com.google.firebase:firebase-iid:10.2.0] C:\Users\androiddev\.android\build-cache\2d1600166a7a2b73931e578b979e61d09e97a576\output\AndroidManifest.xml:31:13-35:29
action#com.google.android.c2dm.intent.RECEIVE
ADDED from [com.google.firebase:firebase-iid:10.2.0] C:\Users\androiddev\.android\build-cache\2d1600166a7a2b73931e578b979e61d09e97a576\output\AndroidManifest.xml:32:17-80
	android:name
		ADDED from [com.google.firebase:firebase-iid:10.2.0] C:\Users\androiddev\.android\build-cache\2d1600166a7a2b73931e578b979e61d09e97a576\output\AndroidManifest.xml:32:25-78
action#com.google.android.c2dm.intent.REGISTRATION
ADDED from [com.google.firebase:firebase-iid:10.2.0] C:\Users\androiddev\.android\build-cache\2d1600166a7a2b73931e578b979e61d09e97a576\output\AndroidManifest.xml:33:17-85
	android:name
		ADDED from [com.google.firebase:firebase-iid:10.2.0] C:\Users\androiddev\.android\build-cache\2d1600166a7a2b73931e578b979e61d09e97a576\output\AndroidManifest.xml:33:25-83
category#${applicationId}
ADDED from [com.google.firebase:firebase-iid:10.2.0] C:\Users\androiddev\.android\build-cache\2d1600166a7a2b73931e578b979e61d09e97a576\output\AndroidManifest.xml:34:17-60
	android:name
		ADDED from [com.google.firebase:firebase-iid:10.2.0] C:\Users\androiddev\.android\build-cache\2d1600166a7a2b73931e578b979e61d09e97a576\output\AndroidManifest.xml:34:27-58
receiver#com.google.firebase.iid.FirebaseInstanceIdInternalReceiver
ADDED from [com.google.firebase:firebase-iid:10.2.0] C:\Users\androiddev\.android\build-cache\2d1600166a7a2b73931e578b979e61d09e97a576\output\AndroidManifest.xml:40:9-119
	android:exported
		ADDED from [com.google.firebase:firebase-iid:10.2.0] C:\Users\androiddev\.android\build-cache\2d1600166a7a2b73931e578b979e61d09e97a576\output\AndroidManifest.xml:40:93-117
	android:name
		ADDED from [com.google.firebase:firebase-iid:10.2.0] C:\Users\androiddev\.android\build-cache\2d1600166a7a2b73931e578b979e61d09e97a576\output\AndroidManifest.xml:40:19-92
service#com.google.firebase.iid.FirebaseInstanceIdService
ADDED from [com.google.firebase:firebase-iid:10.2.0] C:\Users\androiddev\.android\build-cache\2d1600166a7a2b73931e578b979e61d09e97a576\output\AndroidManifest.xml:44:9-48:19
	android:exported
		ADDED from [com.google.firebase:firebase-iid:10.2.0] C:\Users\androiddev\.android\build-cache\2d1600166a7a2b73931e578b979e61d09e97a576\output\AndroidManifest.xml:44:83-106
	android:name
		ADDED from [com.google.firebase:firebase-iid:10.2.0] C:\Users\androiddev\.android\build-cache\2d1600166a7a2b73931e578b979e61d09e97a576\output\AndroidManifest.xml:44:18-82
provider#com.google.firebase.provider.FirebaseInitProvider
ADDED from [com.google.firebase:firebase-common:10.2.0] C:\Users\androiddev\.android\build-cache\f3e3b903c83eb8670d199377c273f7bfd70d7356\output\AndroidManifest.xml:6:9-194
	android:authorities
		ADDED from [com.google.firebase:firebase-common:10.2.0] C:\Users\androiddev\.android\build-cache\f3e3b903c83eb8670d199377c273f7bfd70d7356\output\AndroidManifest.xml:6:19-78
	android:exported
		ADDED from [com.google.firebase:firebase-common:10.2.0] C:\Users\androiddev\.android\build-cache\f3e3b903c83eb8670d199377c273f7bfd70d7356\output\AndroidManifest.xml:6:144-168
	android:initOrder
		ADDED from [com.google.firebase:firebase-common:10.2.0] C:\Users\androiddev\.android\build-cache\f3e3b903c83eb8670d199377c273f7bfd70d7356\output\AndroidManifest.xml:6:169-192
	android:name
		ADDED from [com.google.firebase:firebase-common:10.2.0] C:\Users\androiddev\.android\build-cache\f3e3b903c83eb8670d199377c273f7bfd70d7356\output\AndroidManifest.xml:6:79-143
meta-data#com.google.android.gms.version
ADDED from [com.google.android.gms:play-services-basement:10.2.0] C:\Users\androiddev\.android\build-cache\3d0144912d502dfb531d06e874f87a83b257f107\output\AndroidManifest.xml:20:9-121
	android:value
		ADDED from [com.google.android.gms:play-services-basement:10.2.0] C:\Users\androiddev\.android\build-cache\3d0144912d502dfb531d06e874f87a83b257f107\output\AndroidManifest.xml:20:66-119
	android:name
		ADDED from [com.google.android.gms:play-services-basement:10.2.0] C:\Users\androiddev\.android\build-cache\3d0144912d502dfb531d06e874f87a83b257f107\output\AndroidManifest.xml:20:20-65
